# LAMMPS data file written by OVITO Basic 3.7.11
2104 atoms
1 atom types
0.0 39.57150679 xlo xhi
0.0 38.07770017 ylo yhi
0.0 40.4361248 zlo zhi

Masses

1 63.550  # Cu

Atoms  

1 1 0 0 0
2 1 2.19842 1.26926 0
3 1 0 2.53851 0
4 1 2.19842 3.80777 0
271 1 1.46561 2.31199e-16 2.07269
272 1 3.66403 1.26926 2.07269
273 1 1.46561 2.53851 2.07269
274 1 3.66403 3.80777 2.07269
31 1 4.39683 0 0
33 1 4.39683 2.53851 0
32 1 6.59525 1.26926 0
34 1 6.59525 3.80777 0
301 1 5.86245 2.31199e-16 2.07269
302 1 8.06086 1.26926 2.07269
303 1 5.86245 2.53851 2.07269
304 1 8.06086 3.80777 2.07269
61 1 8.79367 0 0
62 1 10.9921 1.26926 0
63 1 8.79367 2.53851 0
64 1 10.9921 3.80777 0
331 1 10.2593 2.31199e-16 2.07269
332 1 12.4577 1.26926 2.07269
333 1 10.2593 2.53851 2.07269
334 1 12.4577 3.80777 2.07269
91 1 13.1905 0 0
93 1 13.1905 2.53851 0
5 1 0 5.07703 0
6 1 2.19842 6.34628 0
7 1 0 7.61554 0
275 1 1.46561 5.07703 2.07269
276 1 3.66403 6.34628 2.07269
277 1 1.46561 7.61554 2.07269
35 1 4.39683 5.07703 0
37 1 4.39683 7.61554 0
36 1 6.59525 6.34628 0
305 1 5.86245 5.07703 2.07269
306 1 8.06086 6.34628 2.07269
307 1 5.86245 7.61554 2.07269
65 1 8.79367 5.07703 0
66 1 10.9921 6.34628 0
67 1 8.79367 7.61554 0
335 1 10.2593 5.07703 2.07269
336 1 12.4577 6.34628 2.07269
337 1 10.2593 7.61554 2.07269
95 1 13.1905 5.07703 0
97 1 13.1905 7.61554 0
8 1 2.19842 8.8848 0
9 1 0 10.1541 0
10 1 2.19842 11.4233 0
278 1 3.66403 8.8848 2.07269
279 1 1.46561 10.1541 2.07269
280 1 3.66403 11.4233 2.07269
39 1 4.39683 10.1541 0
38 1 6.59525 8.8848 0
40 1 6.59525 11.4233 0
308 1 8.06086 8.8848 2.07269
309 1 5.86245 10.1541 2.07269
310 1 8.06086 11.4233 2.07269
68 1 10.9921 8.8848 0
69 1 8.79367 10.1541 0
70 1 10.9921 11.4233 0
338 1 12.4577 8.8848 2.07269
339 1 10.2593 10.1541 2.07269
340 1 12.4577 11.4233 2.07269
99 1 13.1905 10.1541 0
610 1 9.53114 11.4149 4.2786
11 1 0 12.6926 0
281 1 1.46561 12.6926 2.07269
41 1 4.39683 12.6926 0
12 1 2.19842 13.9618 0
13 1 0 15.2311 0
14 1 2.19842 16.5003 0
282 1 3.66403 13.9618 2.07269
283 1 1.46561 15.2311 2.07269
284 1 3.66403 16.5003 2.07269
43 1 4.39683 15.2311 0
311 1 5.86245 12.6926 2.07269
42 1 6.59525 13.9618 0
44 1 6.59525 16.5003 0
312 1 8.06086 13.9618 2.07269
313 1 5.86245 15.2311 2.07269
314 1 8.06086 16.5003 2.07269
584 1 4.94645 16.6148 4.14796
71 1 8.79367 12.6926 0
341 1 10.2593 12.6926 2.07269
72 1 10.9921 13.9618 0
73 1 8.79367 15.2311 0
74 1 10.9921 16.5003 0
342 1 12.4577 13.9618 2.07269
343 1 10.2593 15.2311 2.07269
344 1 12.4577 16.5003 2.07269
101 1 13.1905 12.6926 0
103 1 13.1905 15.2311 0
15 1 0 17.7696 0
16 1 2.19842 19.0389 0
17 1 0 20.3081 0
285 1 1.46561 17.7696 2.07269
286 1 3.66403 19.0389 2.07269
287 1 1.46561 20.3081 2.07269
45 1 4.39683 17.7696 0
47 1 4.39683 20.3081 0
46 1 6.59525 19.0389 0
315 1 5.86245 17.7696 2.07269
316 1 8.06086 19.0389 2.07269
317 1 5.86245 20.3081 2.07269
75 1 8.79367 17.7696 0
76 1 10.9921 19.0389 0
77 1 8.79367 20.3081 0
345 1 10.2593 17.7696 2.07269
346 1 12.4577 19.0389 2.07269
347 1 10.2593 20.3081 2.07269
105 1 13.1905 17.7696 0
107 1 13.1905 20.3081 0
18 1 2.19842 21.5774 0
19 1 0 22.8466 0
20 1 2.19842 24.1159 0
21 1 0 25.3851 0
288 1 3.66403 21.5774 2.07269
289 1 1.46561 22.8466 2.07269
290 1 3.66403 24.1159 2.07269
291 1 1.46561 25.3851 2.07269
49 1 4.39683 22.8466 0
51 1 4.39683 25.3851 0
48 1 6.59525 21.5774 0
50 1 6.59525 24.1159 0
318 1 8.06086 21.5774 2.07269
319 1 5.86245 22.8466 2.07269
320 1 8.06086 24.1159 2.07269
321 1 5.86245 25.3851 2.07269
588 1 5.16354 21.3721 4.21834
589 1 7.28852 22.9446 4.20229
78 1 10.9921 21.5774 0
79 1 8.79367 22.8466 0
80 1 10.9921 24.1159 0
81 1 8.79367 25.3851 0
348 1 12.4577 21.5774 2.07269
349 1 10.2593 22.8466 2.07269
350 1 12.4577 24.1159 2.07269
351 1 10.2593 25.3851 2.07269
109 1 13.1905 22.8466 0
111 1 13.1905 25.3851 0
22 1 2.19842 26.6544 0
23 1 0 27.9236 0
24 1 2.19842 29.1929 0
292 1 3.66403 26.6544 2.07269
293 1 1.46561 27.9236 2.07269
294 1 3.66403 29.1929 2.07269
53 1 4.39683 27.9236 0
52 1 6.59525 26.6544 0
54 1 6.59525 29.1929 0
322 1 8.06086 26.6544 2.07269
323 1 5.86245 27.9236 2.07269
324 1 8.06086 29.1929 2.07269
82 1 10.9921 26.6544 0
83 1 8.79367 27.9236 0
84 1 10.9921 29.1929 0
352 1 12.4577 26.6544 2.07269
353 1 10.2593 27.9236 2.07269
354 1 12.4577 29.1929 2.07269
113 1 13.1905 27.9236 0
25 1 0 30.4622 0
26 1 2.19842 31.7314 0
27 1 0 33.0007 0
295 1 1.46561 30.4622 2.07269
296 1 3.66403 31.7314 2.07269
297 1 1.46561 33.0007 2.07269
55 1 4.39683 30.4622 0
57 1 4.39683 33.0007 0
567 1 3.02694 33.0438 4.35705
56 1 6.59525 31.7314 0
325 1 5.86245 30.4622 2.07269
326 1 8.06086 31.7314 2.07269
327 1 5.86245 33.0007 2.07269
85 1 8.79367 30.4622 0
86 1 10.9921 31.7314 0
87 1 8.79367 33.0007 0
355 1 10.2593 30.4622 2.07269
356 1 12.4577 31.7314 2.07269
357 1 10.2593 33.0007 2.07269
115 1 13.1905 30.4622 0
117 1 13.1905 33.0007 0
626 1 9.63714 31.7348 4.11625
28 1 2.19842 34.2699 0
29 1 0 35.5392 0
30 1 2.19842 36.8084 0
298 1 3.66403 34.2699 2.07269
299 1 1.46561 35.5392 2.07269
300 1 3.66403 36.8084 2.07269
59 1 4.39683 35.5392 0
58 1 6.59525 34.2699 0
60 1 6.59525 36.8084 0
328 1 8.06086 34.2699 2.07269
329 1 5.86245 35.5392 2.07269
330 1 8.06086 36.8084 2.07269
88 1 10.9921 34.2699 0
89 1 8.79367 35.5392 0
90 1 10.9921 36.8084 0
358 1 12.4577 34.2699 2.07269
359 1 10.2593 35.5392 2.07269
360 1 12.4577 36.8084 2.07269
119 1 13.1905 35.5392 0
543 1 2.97942 2.40874 4.1547
544 1 0.612226 3.90638 4.24318
542 1 0.713537 1.16935 4.29409
812 1 2.31535 1.32852 6.24875
814 1 2.2097 3.76357 6.484
843 1 4.31947 2.38121 6.24294
841 1 4.59222 0.0259407 6.30485
811 1 0.0595403 -0.282243 6.40409
573 1 7.35786 2.49279 4.16815
572 1 5.21646 1.2091 4.11891
574 1 5.2568 3.60673 4.32312
842 1 6.54492 1.33735 6.28157
844 1 6.5629 3.7576 6.40241
571 1 7.31239 37.9087 4.30815
873 1 8.82691 2.56779 6.36915
604 1 9.60182 3.57238 4.26544
602 1 9.43814 1.06224 4.20802
603 1 11.6307 2.55765 4.28079
872 1 10.9567 1.2303 6.43232
874 1 10.943 3.75644 6.56132
601 1 11.7536 -0.0294021 4.12129
545 1 2.94706 5.09215 4.18731
547 1 2.90057 7.82724 4.18064
546 1 0.805035 6.44098 4.23877
816 1 2.29927 6.23407 6.34297
845 1 4.54314 5.1452 6.41321
847 1 4.42671 7.36551 6.48518
577 1 7.41537 7.73245 4.45549
576 1 5.09242 6.15691 4.2233
575 1 7.28402 5.07309 4.27937
846 1 6.68657 6.22417 6.2739
877 1 8.71715 7.56677 6.55383
875 1 8.78585 4.98542 6.57651
606 1 9.37679 6.29788 4.21769
605 1 11.5544 5.1517 4.12501
607 1 11.8059 7.51921 4.12829
876 1 10.8616 6.37988 6.41885
2100 1 4.77247 21.9271 16.6079
548 1 0.872206 8.97067 4.40639
550 1 0.537762 11.5087 4.35436
549 1 3.01508 10.2412 4.22434
818 1 2.28566 8.78605 6.31948
820 1 2.16737 11.2865 6.3685
849 1 4.45965 10.135 6.408
851 1 4.43999 12.6273 6.41361
551 1 2.87299 12.7771 4.24107
581 1 7.36383 12.6189 4.34191
578 1 5.31849 8.93568 4.35394
579 1 7.41863 10.1507 4.25544
580 1 5.19966 11.4121 4.29128
848 1 6.56754 8.8037 6.54438
850 1 6.63077 11.4105 6.57188
881 1 8.8169 12.6184 6.27617
879 1 8.80789 10.0471 6.30036
608 1 9.59496 8.79425 4.22066
609 1 11.8325 10.2604 4.33851
878 1 10.8498 8.78013 6.44492
880 1 10.8641 11.3027 6.38229
611 1 11.6411 12.759 4.30129
554 1 0.732332 16.505 4.18378
553 1 2.81396 15.4374 4.23881
552 1 0.929214 14.052 4.34292
822 1 2.1898 13.8989 6.46171
824 1 2.24928 16.4003 6.55736
823 1 0.0378883 15.191 6.30936
853 1 4.26993 15.2416 6.16046
583 1 7.39672 15.147 4.16152
582 1 5.22878 13.8186 4.2834
852 1 6.45789 14.0386 6.28324
854 1 6.44791 16.4919 6.09298
883 1 8.80903 15.1181 6.15496
614 1 9.43647 16.4861 4.14578
612 1 9.56049 13.9279 4.06099
613 1 11.5993 15.347 4.24112
882 1 11.1413 13.9072 6.46699
884 1 11.0752 16.5456 6.34605
913 1 13.2903 15.1675 6.24548
556 1 0.709906 19.0196 4.33699
557 1 2.89143 20.222 4.21307
555 1 2.83304 17.874 4.37135
826 1 2.18406 19.0132 6.44999
855 1 4.3969 17.7555 6.38687
2061 1 10.0504 36.0613 14.758
827 1 -0.00918771 20.1238 6.317
587 1 7.23382 20.3176 4.11031
857 1 4.44856 20.3281 6.41311
586 1 5.14189 18.9478 4.41194
585 1 7.3771 17.9437 4.30969
856 1 6.61428 19.009 6.39776
887 1 8.7732 20.3159 6.14915
885 1 8.76644 17.8941 6.31419
615 1 11.7353 17.8097 4.16396
616 1 9.62263 19.0591 4.12959
617 1 11.9395 20.5868 4.10884
886 1 11.0542 18.8978 6.39295
1828 1 11.0631 36.8771 12.5708
560 1 0.628443 24.0351 4.30236
559 1 3.01916 22.797 4.09752
558 1 0.794117 21.4892 4.324
828 1 2.18293 21.5563 6.19936
830 1 2.45633 24.1905 6.30281
561 1 2.80639 25.3207 4.1149
861 1 4.54361 25.4704 6.60595
1935 1 10.8766 34.3997 12.9293
859 1 4.58734 23.0211 6.33987
590 1 5.08215 24.291 4.09341
858 1 6.56507 21.5247 6.41561
860 1 6.86986 24.1825 6.22938
889 1 8.94117 22.8412 6.35388
591 1 7.31411 25.3146 4.07635
891 1 8.8999 25.5126 6.40093
620 1 9.4231 24.1869 4.2591
618 1 9.58751 21.5886 4.16492
619 1 11.543 23.1345 4.17392
888 1 10.9707 21.5065 6.30959
890 1 11.0404 23.9918 6.47165
563 1 2.70967 27.8711 4.37225
562 1 0.613448 26.6448 4.216
564 1 0.667361 29.0811 4.13797
832 1 2.18854 26.5366 6.52764
834 1 2.34659 29.0243 6.41299
833 1 0.0283876 27.8571 6.14893
863 1 4.53465 28.0101 6.11716
592 1 4.95965 26.8242 3.96592
594 1 5.15639 29.2853 4.19699
593 1 7.2522 28.0764 4.13324
862 1 6.54931 26.6419 6.12336
864 1 6.66444 29.2109 6.45826
621 1 11.6514 25.6619 4.19471
623 1 11.9258 28.0339 4.38577
893 1 8.94388 27.9419 6.46778
622 1 9.29463 26.6958 4.21275
624 1 9.60524 29.2257 4.22765
892 1 11.0082 26.6403 6.52549
894 1 11.1643 29.1498 6.55427
1853 1 12.3525 36.5894 14.6101
565 1 2.7561 30.4652 4.42915
566 1 0.989674 31.8172 4.15456
836 1 2.15996 31.6403 6.35873
865 1 4.3096 30.4559 6.54794
835 1 0.0702546 30.2382 6.38418
867 1 4.46266 32.8052 6.44735
596 1 4.92342 31.8075 4.3347
597 1 7.2279 32.9415 4.09271
595 1 7.43972 30.5818 4.23193
866 1 6.60277 31.6019 6.46994
897 1 8.54687 33.0111 6.53514
895 1 8.81382 30.4921 6.43129
627 1 11.6802 32.8971 4.38166
625 1 11.8183 30.3648 4.42662
896 1 11.0346 31.7455 6.50658
925 1 13.0601 30.5585 6.58033
927 1 13.0686 33.0239 6.6974
541 1 2.94907 -0.110326 4.19111
1407 1 12.9162 0.0753158 12.7769
570 1 0.836258 36.6222 4.25062
569 1 3.00884 35.4221 4.17966
568 1 0.734993 34.1251 4.17231
838 1 2.07664 34.3034 6.37162
840 1 2.21487 36.689 6.50189
869 1 4.40962 35.5441 6.34916
598 1 5.10104 34.1713 4.16895
599 1 7.17252 35.3899 4.17997
600 1 5.11507 36.7065 4.30215
868 1 6.47318 34.1894 6.3071
870 1 6.53866 36.655 6.43109
899 1 8.83488 35.6525 6.17943
871 1 8.80975 -0.13255 6.30312
628 1 9.59051 34.347 4.32967
630 1 9.69415 36.8321 4.20826
629 1 11.7707 35.5351 4.21271
898 1 10.8753 34.2409 6.35462
900 1 11.1433 36.8957 6.26887
929 1 13.2235 35.5033 6.37872
1083 1 1.40163 2.5652 8.74436
1082 1 3.47859 1.12338 8.46103
1352 1 0.763275 1.32961 10.6427
1353 1 2.86456 2.38187 10.7149
1084 1 3.7903 3.76074 8.65125
1354 1 0.630125 3.73548 10.9264
1351 1 2.68295 0.104445 10.539
1081 1 1.36547 0.0534319 8.58814
1112 1 7.99497 1.06937 8.47401
1113 1 5.91417 2.53412 8.66531
1114 1 8.02168 3.57078 8.38974
1382 1 5.04931 1.40191 10.7218
1383 1 7.21415 2.62025 10.703
1384 1 5.08413 3.89949 10.9376
1111 1 5.63187 38.1462 8.44516
1381 1 7.17105 0.0721817 10.721
1143 1 10.2505 2.53167 8.50251
1142 1 12.4801 1.20847 8.49973
1412 1 9.31974 1.39825 10.7117
1413 1 11.5326 2.42316 10.5988
1144 1 12.5668 3.77463 8.77733
1414 1 9.48726 3.91853 10.6747
1411 1 11.4794 0.0829463 10.5099
1141 1 10.1881 -0.00195006 8.41287
1085 1 1.28483 5.1542 8.5035
1086 1 3.59715 6.03867 8.58452
1087 1 1.53824 7.53671 8.64158
1355 1 2.92174 4.97488 10.8587
1356 1 0.692042 6.3027 10.7546
1357 1 2.95119 7.5464 10.6822
1117 1 5.95726 7.33633 8.58871
1116 1 8.17808 6.0328 8.78249
1115 1 5.94905 4.94942 8.46778
1385 1 7.30054 4.96141 10.6777
1386 1 4.98384 6.15066 10.5499
1387 1 7.14189 7.60374 10.6919
1147 1 10.2634 7.56191 8.75246
1145 1 10.3149 4.99159 8.65062
1146 1 12.3398 6.33984 8.65594
1416 1 9.27643 6.42177 10.8013
1800 1 11.5904 4.91202 10.6746
1832 1 11.832 7.43954 10.8169
1358 1 0.842805 8.74997 10.6357
1089 1 1.47936 10.0123 8.4812
1090 1 3.63426 11.3258 8.38045
1088 1 3.91132 8.56003 8.53882
1359 1 0.853739 11.4608 10.435
1672 1 2.9853 10.198 10.6565
1360 1 3.01745 12.6308 10.5804
1388 1 5.06596 8.95575 10.6956
1118 1 7.89739 8.79876 8.6849
1120 1 8.01617 11.3799 8.65953
1119 1 5.99066 10.161 8.77188
1390 1 4.99401 11.3992 10.8653
1389 1 7.33983 10.1305 10.7202
1391 1 7.31119 12.5958 10.8635
1121 1 5.78679 12.8346 8.67064
1418 1 9.56142 8.85833 10.8234
1717 1 9.78555 11.4319 10.7964
1148 1 12.5953 8.81013 8.56835
1150 1 12.173 11.3734 8.53858
1149 1 10.1559 10.1071 8.33354
1419 1 11.7479 9.85818 10.5321
1091 1 1.53363 12.5554 8.41993
1092 1 3.66568 13.9234 8.37473
1094 1 3.86039 16.3895 8.59654
1093 1 1.5156 15.1486 8.6486
1362 1 0.83398 13.8771 10.5789
1363 1 2.75978 15.301 10.7221
1364 1 0.705474 16.424 10.5358
1124 1 8.13528 16.5419 8.44722
1122 1 8.06131 14.0062 8.51347
1123 1 5.86317 15.2453 8.42707
1392 1 5.0396 14.0281 10.7489
1393 1 7.24328 14.8959 10.8358
1394 1 5.0578 16.6155 10.6711
1151 1 10.241 12.6062 8.52498
1421 1 11.8079 12.8134 10.8486
1154 1 12.6447 16.6003 8.3368
1152 1 12.5241 13.9642 8.42904
1153 1 10.385 15.0477 8.28261
1422 1 9.66306 13.8904 10.6002
1423 1 11.705 15.1518 10.5199
1424 1 9.23626 16.3735 10.4977
1095 1 1.36288 17.783 8.37961
1096 1 3.56298 18.8395 8.78908
1097 1 1.70296 20.3671 8.63924
1365 1 2.86476 17.7593 10.5779
1366 1 0.616488 19.1881 10.5205
1367 1 2.97818 20.4044 10.6632
1126 1 8.10185 18.922 8.62169
1127 1 5.88888 20.2146 8.42506
1125 1 5.86311 17.7255 8.44209
1395 1 7.18311 17.7717 10.5625
1396 1 5.0658 19.006 10.6319
1397 1 7.30153 20.2091 10.6936
1155 1 10.3094 17.9571 8.39295
1156 1 12.2727 18.9855 8.74731
1157 1 10.1583 20.4183 8.2333
1425 1 11.3371 17.6259 10.7268
1426 1 9.53344 19.0486 10.6627
1427 1 11.5732 20.4327 10.8375
1098 1 3.85189 21.6376 8.41033
1368 1 0.848093 21.7542 10.7675
1100 1 3.80382 24.0964 8.54542
1099 1 1.53832 22.7004 8.66985
1369 1 2.86719 22.9641 10.637
1370 1 0.774307 24.1455 10.7963
1101 1 1.56133 25.2566 8.5997
1129 1 5.91906 23.1489 8.5435
1398 1 5.09304 21.8302 10.3021
1128 1 8.03701 21.3963 8.56579
1130 1 8.17278 24.1792 8.66787
1399 1 7.23938 22.6905 10.4516
1400 1 5.20012 24.2854 10.7533
1131 1 6.00574 25.5548 8.66142
1428 1 9.44707 21.4683 10.7205
1158 1 12.4523 21.6185 8.56297
1160 1 12.4185 24.0136 8.71909
1159 1 10.3191 22.9029 8.52975
1429 1 11.5682 22.906 10.7517
1430 1 9.44211 23.9703 10.6151
1161 1 10.3659 25.2862 8.68241
1371 1 3.05105 25.3934 10.8959
1102 1 3.74427 26.8359 8.60588
1103 1 1.39546 28.0402 8.37511
1372 1 0.82304 26.6088 10.6836
1373 1 2.8624 28.0992 10.7338
1775 1 0.845773 29.318 10.4037
1104 1 3.47416 29.1425 8.67256
1401 1 7.50268 25.6116 10.7484
1132 1 8.26369 26.5142 8.55143
1133 1 5.98965 27.9706 8.35007
1402 1 5.30041 26.7185 10.657
1404 1 5.00632 29.2122 10.6402
1134 1 8.16786 29.1452 8.69965
1403 1 7.36567 27.9831 10.9322
1431 1 11.6173 25.2967 11.1863
1162 1 12.4341 26.3067 8.98335
1163 1 10.3054 27.9649 8.78532
1432 1 9.66077 26.8054 10.655
1433 1 11.8139 28.0813 10.7908
1164 1 12.4895 29.1839 8.51837
1818 1 9.57101 29.2832 10.6589
1105 1 1.39381 30.5139 8.48633
1107 1 1.37285 33.0598 8.54434
1106 1 3.54606 31.7135 8.53669
1375 1 3.02269 30.5363 10.7815
1377 1 2.73527 32.996 10.529
1376 1 0.741361 31.7768 10.6384
1135 1 5.77794 30.3119 8.66158
1787 1 4.97503 31.6487 10.5852
1136 1 7.82485 31.6401 8.70675
1137 1 5.85476 32.8736 8.34926
1405 1 7.19631 30.3268 10.8254
1438 1 6.89557 33.0209 10.6572
1167 1 10.0532 32.9729 8.49555
1894 1 11.4663 33.0713 10.8436
1165 1 10.1556 30.5587 8.68185
1166 1 12.3034 31.6848 8.67173
1436 1 9.38144 31.5992 10.9312
1435 1 11.683 30.4903 10.6937
1109 1 1.3857 35.3386 8.74403
1378 1 0.591364 34.0715 10.6672
1379 1 2.76546 35.4952 10.6913
1108 1 3.63518 34.3468 8.2779
1380 1 0.614856 36.6733 10.8667
1110 1 3.5537 36.8804 8.55941
1408 1 4.71969 34.3266 10.5559
1138 1 8.01112 34.2174 8.4671
1409 1 7.01444 35.5177 10.4907
1139 1 5.6116 35.7017 8.609
1140 1 8.05803 36.8834 8.53752
1410 1 5.11621 37.0099 10.7198
1170 1 12.3818 36.7623 8.31543
1835 1 9.42016 34.3292 10.5802
1439 1 11.7551 35.4259 10.4486
1169 1 10.1142 35.5956 8.48625
1168 1 12.1079 34.2759 8.48731
1440 1 9.46453 37.0981 10.5881
1670 1 2.19969 1.33947 12.7965
1961 1 3.5896 1.15678 14.8306
1964 1 1.42056 2.67978 15.0812
1668 1 2.26403 3.87588 12.9508
1676 1 4.51871 2.53208 13.1221
1708 1 4.48529 37.9963 12.7123
1731 1 6.6183 1.26508 13.248
1721 1 6.70999 3.69254 12.7609
2006 1 5.67215 38.1683 15.1995
1760 1 8.69405 2.58211 13.1646
1768 1 8.75521 0.114056 12.9452
1772 1 10.8967 1.20808 12.932
1861 1 11.147 3.77703 12.7641
1783 1 6.67186 34.288 12.7214
1667 1 2.36803 6.3167 12.9137
1694 1 4.35528 5.10739 12.8963
1662 1 -0.0592177 7.64864 12.7579
1727 1 4.50924 7.52078 12.8554
1791 1 6.81747 6.16341 12.8403
1773 1 8.93997 4.90242 13.015
1854 1 8.86558 7.51793 13.0686
1904 1 10.991 6.26558 13.2261
1825 1 2.21461 11.4329 12.5787
1682 1 2.48722 8.76915 12.8841
1965 1 5.89641 35.4667 14.7929
1361 1 4.24504 12.5555 12.9617
1732 1 4.40089 9.9969 12.8999
2101 1 5.68779 12.6787 14.9012
1871 1 6.74994 8.80294 12.7942
1816 1 6.50419 11.2906 13.0631
1420 1 8.87071 12.4489 12.8892
2063 1 12.6474 8.5556 14.9391
1830 1 11.1272 8.90755 12.7927
1831 1 8.85381 10.0555 12.7566
1900 1 10.9788 11.3334 12.9341
1946 1 13.0221 12.4867 12.6948
2043 1 3.84514 13.9354 15.0091
2056 1 1.69554 15.1783 14.7673
1646 1 2.35153 13.9135 12.916
1726 1 2.45416 16.375 12.9019
1985 1 3.55185 16.6617 15.0868
1747 1 4.42756 15.265 12.9753
2098 1 5.92565 15.2166 14.9338
1801 1 6.38431 13.9023 12.925
1648 1 6.72843 16.5271 12.6258
2099 1 8.06788 16.7645 14.7938
1728 1 8.75743 15.4509 13.0864
2040 1 12.4638 13.6604 14.5892
1759 1 10.773 13.9971 12.8474
1729 1 10.1665 15.1899 14.8553
1774 1 12.2878 16.4629 14.9155
1716 1 13.2557 15.3714 12.9135
2051 1 1.46149 17.5342 15.0378
1969 1 3.45958 19.2263 14.6702
1988 1 1.44308 20.3153 14.9077
1657 1 1.89308 18.9986 12.7256
1824 1 -0.11274 17.6877 12.7706
1709 1 4.40656 20.3939 12.6947
1715 1 4.4314 17.9288 12.9609
2087 1 5.70125 20.2816 15.0899
2036 1 8.0317 19.1505 15.1734
1640 1 6.72403 19.1137 13.1205
1976 1 5.74219 17.7063 14.99
1649 1 8.76483 20.3727 12.9615
1688 1 8.90472 17.8031 12.7139
2035 1 8.40195 34.2075 14.8294
2064 1 10.1499 17.7271 14.988
1898 1 12.3278 18.8229 15.2123
2021 1 10.3193 20.384 15.3596
1696 1 10.8593 19.0541 12.9169
1981 1 7.84841 36.9373 14.9804
1956 1 3.49177 21.7468 14.7885
1642 1 2.24744 21.579 12.7568
1930 1 1.52366 22.9225 14.9347
1751 1 2.16162 24.2442 12.8407
1908 1 3.65407 24.0383 15.0589
1630 1 4.23553 22.9632 12.5857
1803 1 4.6234 25.4528 13.0395
1872 1 1.46762 25.3736 15.022
1639 1 6.53494 21.48 12.4975
1954 1 8.13001 21.5458 15.1144
1679 1 6.75671 24.0893 12.7633
1936 1 5.87633 22.9499 14.8612
2009 1 7.921 24.0827 14.8924
1740 1 9.02499 22.9666 12.8994
1650 1 10.9096 21.7476 13.0431
1658 1 12.3968 21.7058 15.081
1659 1 12.3828 24.1305 15.7732
2019 1 10.0702 22.9861 15.343
1627 1 11.0281 24.1252 13.3971
2013 1 10.0391 25.4338 15.0096
1705 1 12.9496 22.7986 13.1036
1780 1 6.53964 36.9047 13.0536
1804 1 0.14703 28.1821 12.5786
1837 1 1.49229 28.0447 14.8866
1880 1 3.47986 26.4474 14.9631
1771 1 2.20831 26.6685 12.9131
1777 1 2.27144 29.3706 13.0084
1839 1 3.66623 29.2138 14.9475
1794 1 4.46489 27.8726 12.9364
1931 1 5.7249 25.4957 15.2885
1932 1 5.6326 27.7635 15.2088
1866 1 6.76198 26.6141 13.1897
1937 1 8.06629 26.4421 15.1656
1812 1 6.6187 29.0169 13.1153
2027 1 7.98856 29.1326 14.8955
1802 1 8.7903 25.5076 12.6196
1865 1 8.84523 27.9283 12.8301
2041 1 12.2653 26.5577 15.5183
2023 1 10.2932 27.9397 15.1508
1637 1 11.0168 26.7381 13.055
1819 1 11.0726 29.3251 12.8222
1795 1 8.59702 35.8599 12.6259
1761 1 0.0634929 30.5696 12.8773
1762 1 4.38971 30.4354 12.9907
1876 1 3.86088 31.7845 15.0306
1855 1 1.20213 30.53 15.0605
1736 1 2.28972 31.8844 13.031
1878 1 1.33412 33.3203 14.8929
1406 1 4.4376 32.9543 12.4437
2048 1 5.89114 32.9157 14.9784
1996 1 6.51377 31.6985 12.8388
2094 1 8.15577 31.8462 14.9418
1893 1 5.97935 30.5094 14.9823
1434 1 8.84343 30.5151 12.949
1918 1 8.89279 33.1233 12.8587
1437 1 11.0489 31.7079 12.8754
2079 1 10.4828 30.335 14.8029
1860 1 12.9459 33.2452 13.1559
2082 1 1.47952 38.1029 14.9846
1757 1 2.16932 34.3174 12.5752
2024 1 1.51125 35.6352 14.8894
2000 1 3.65945 36.7374 15.1093
1924 1 3.5388 34.2141 14.7233
1779 1 2.31199 36.7444 12.8268
1711 1 4.5239 35.4513 12.6661
903 1 13.1407 2.59386 6.50202
905 1 13.2973 5.18458 6.76501
909 1 13.1993 10.1726 6.59222
917 1 12.9783 20.4155 6.48085
921 1 13.1826 25.4483 6.62201
923 1 13.371 27.9308 6.43024
901 1 13.2726 0.0830455 6.48392
1813 1 13.1199 2.42652 13.235
1415 1 13.1128 4.94978 13.0012
1906 1 13.3347 7.36192 12.8053
1891 1 13.1995 9.99402 12.944
1745 1 13.1785 28.0266 13.8258
1821 1 13.2151 30.7128 13.6672
821 1 0.00142437 12.5019 6.5152
1669 1 0.047482 0.0288872 12.9339
1806 1 0.0692122 10.1648 12.8312
1678 1 -0.0898024 22.8882 12.6676
92 1 15.3889 1.26926 0
94 1 15.3889 3.80777 0
361 1 14.6561 2.31199e-16 2.07269
362 1 16.8545 1.26926 2.07269
363 1 14.6561 2.53851 2.07269
364 1 16.8545 3.80777 2.07269
121 1 17.5873 0 0
123 1 17.5873 2.53851 0
634 1 13.7472 3.88016 4.51741
122 1 19.7858 1.26926 0
124 1 19.7858 3.80777 0
391 1 19.0529 2.31199e-16 2.07269
392 1 21.2514 1.26926 2.07269
393 1 19.0529 2.53851 2.07269
394 1 21.2514 3.80777 2.07269
151 1 21.9842 0 0
152 1 24.1826 1.26926 0
153 1 21.9842 2.53851 0
154 1 24.1826 3.80777 0
421 1 23.4498 2.31199e-16 2.07269
422 1 25.6482 1.26926 2.07269
423 1 23.4498 2.53851 2.07269
424 1 25.6482 3.80777 2.07269
181 1 26.381 0 0
183 1 26.381 2.53851 0
96 1 15.3889 6.34628 0
365 1 14.6561 5.07703 2.07269
366 1 16.8545 6.34628 2.07269
367 1 14.6561 7.61554 2.07269
125 1 17.5873 5.07703 0
127 1 17.5873 7.61554 0
126 1 19.7858 6.34628 0
395 1 19.0529 5.07703 2.07269
396 1 21.2514 6.34628 2.07269
397 1 19.0529 7.61554 2.07269
155 1 21.9842 5.07703 0
156 1 24.1826 6.34628 0
157 1 21.9842 7.61554 0
425 1 23.4498 5.07703 2.07269
426 1 25.6482 6.34628 2.07269
427 1 23.4498 7.61554 2.07269
185 1 26.381 5.07703 0
187 1 26.381 7.61554 0
98 1 15.3889 8.8848 0
100 1 15.3889 11.4233 0
368 1 16.8545 8.8848 2.07269
369 1 14.6561 10.1541 2.07269
370 1 16.8545 11.4233 2.07269
129 1 17.5873 10.1541 0
639 1 16.2929 10.2972 4.31247
128 1 19.7858 8.8848 0
130 1 19.7858 11.4233 0
398 1 21.2514 8.8848 2.07269
399 1 19.0529 10.1541 2.07269
400 1 21.2514 11.4233 2.07269
158 1 24.1826 8.8848 0
159 1 21.9842 10.1541 0
160 1 24.1826 11.4233 0
428 1 25.6482 8.8848 2.07269
429 1 23.4498 10.1541 2.07269
430 1 25.6482 11.4233 2.07269
189 1 26.381 10.1541 0
371 1 14.6561 12.6926 2.07269
131 1 17.5873 12.6926 0
102 1 15.3889 13.9618 0
104 1 15.3889 16.5003 0
372 1 16.8545 13.9618 2.07269
373 1 14.6561 15.2311 2.07269
374 1 16.8545 16.5003 2.07269
133 1 17.5873 15.2311 0
401 1 19.0529 12.6926 2.07269
132 1 19.7858 13.9618 0
134 1 19.7858 16.5003 0
402 1 21.2514 13.9618 2.07269
403 1 19.0529 15.2311 2.07269
404 1 21.2514 16.5003 2.07269
161 1 21.9842 12.6926 0
431 1 23.4498 12.6926 2.07269
162 1 24.1826 13.9618 0
163 1 21.9842 15.2311 0
164 1 24.1826 16.5003 0
432 1 25.6482 13.9618 2.07269
433 1 23.4498 15.2311 2.07269
434 1 25.6482 16.5003 2.07269
191 1 26.381 12.6926 0
193 1 26.381 15.2311 0
106 1 15.3889 19.0389 0
375 1 14.6561 17.7696 2.07269
376 1 16.8545 19.0389 2.07269
377 1 14.6561 20.3081 2.07269
135 1 17.5873 17.7696 0
137 1 17.5873 20.3081 0
136 1 19.7858 19.0389 0
405 1 19.0529 17.7696 2.07269
406 1 21.2514 19.0389 2.07269
407 1 19.0529 20.3081 2.07269
165 1 21.9842 17.7696 0
166 1 24.1826 19.0389 0
167 1 21.9842 20.3081 0
435 1 23.4498 17.7696 2.07269
436 1 25.6482 19.0389 2.07269
437 1 23.4498 20.3081 2.07269
195 1 26.381 17.7696 0
197 1 26.381 20.3081 0
706 1 22.5056 18.9463 4.38219
108 1 15.3889 21.5774 0
110 1 15.3889 24.1159 0
378 1 16.8545 21.5774 2.07269
379 1 14.6561 22.8466 2.07269
380 1 16.8545 24.1159 2.07269
381 1 14.6561 25.3851 2.07269
139 1 17.5873 22.8466 0
141 1 17.5873 25.3851 0
138 1 19.7858 21.5774 0
140 1 19.7858 24.1159 0
408 1 21.2514 21.5774 2.07269
409 1 19.0529 22.8466 2.07269
410 1 21.2514 24.1159 2.07269
411 1 19.0529 25.3851 2.07269
168 1 24.1826 21.5774 0
169 1 21.9842 22.8466 0
170 1 24.1826 24.1159 0
171 1 21.9842 25.3851 0
438 1 25.6482 21.5774 2.07269
439 1 23.4498 22.8466 2.07269
440 1 25.6482 24.1159 2.07269
441 1 23.4498 25.3851 2.07269
199 1 26.381 22.8466 0
201 1 26.381 25.3851 0
112 1 15.3889 26.6544 0
114 1 15.3889 29.1929 0
382 1 16.8545 26.6544 2.07269
383 1 14.6561 27.9236 2.07269
384 1 16.8545 29.1929 2.07269
143 1 17.5873 27.9236 0
653 1 15.8542 27.9678 4.18459
142 1 19.7858 26.6544 0
144 1 19.7858 29.1929 0
412 1 21.2514 26.6544 2.07269
413 1 19.0529 27.9236 2.07269
414 1 21.2514 29.1929 2.07269
172 1 24.1826 26.6544 0
173 1 21.9842 27.9236 0
174 1 24.1826 29.1929 0
442 1 25.6482 26.6544 2.07269
443 1 23.4498 27.9236 2.07269
444 1 25.6482 29.1929 2.07269
203 1 26.381 27.9236 0
116 1 15.3889 31.7314 0
385 1 14.6561 30.4622 2.07269
386 1 16.8545 31.7314 2.07269
387 1 14.6561 33.0007 2.07269
145 1 17.5873 30.4622 0
147 1 17.5873 33.0007 0
146 1 19.7858 31.7314 0
415 1 19.0529 30.4622 2.07269
416 1 21.2514 31.7314 2.07269
417 1 19.0529 33.0007 2.07269
175 1 21.9842 30.4622 0
176 1 24.1826 31.7314 0
177 1 21.9842 33.0007 0
445 1 23.4498 30.4622 2.07269
446 1 25.6482 31.7314 2.07269
447 1 23.4498 33.0007 2.07269
205 1 26.381 30.4622 0
207 1 26.381 33.0007 0
118 1 15.3889 34.2699 0
120 1 15.3889 36.8084 0
388 1 16.8545 34.2699 2.07269
389 1 14.6561 35.5392 2.07269
390 1 16.8545 36.8084 2.07269
149 1 17.5873 35.5392 0
148 1 19.7858 34.2699 0
150 1 19.7858 36.8084 0
418 1 21.2514 34.2699 2.07269
419 1 19.0529 35.5392 2.07269
420 1 21.2514 36.8084 2.07269
661 1 20.5407 38.0707 4.22515
178 1 24.1826 34.2699 0
179 1 21.9842 35.5392 0
180 1 24.1826 36.8084 0
448 1 25.6482 34.2699 2.07269
449 1 23.4498 35.5392 2.07269
450 1 25.6482 36.8084 2.07269
209 1 26.381 35.5392 0
632 1 13.8224 1.42115 4.16125
633 1 16.0554 2.7856 4.37489
902 1 15.3714 1.38077 6.42972
904 1 15.4791 3.88311 6.62152
2103 1 23.4745 31.5385 16.6508
933 1 17.6759 2.5133 6.42526
663 1 20.4292 2.46772 4.24601
664 1 18.4227 3.92887 4.2397
662 1 18.2975 1.37473 4.20095
932 1 19.6948 1.1607 6.29209
934 1 19.8147 3.85002 6.6766
931 1 17.5471 38.038 6.45704
692 1 22.8722 1.23005 4.17215
963 1 21.9459 2.35628 6.44499
694 1 22.7903 3.65404 4.12707
693 1 25.0116 2.49907 4.25136
962 1 23.945 0.987255 6.6336
964 1 24.0677 3.5352 6.35478
961 1 21.7715 -0.219723 6.44527
635 1 16.0539 5.18519 4.40444
636 1 14.0756 6.44296 4.03273
637 1 16.1564 7.67178 4.35921
906 1 15.3122 6.34727 6.28092
937 1 17.4905 7.50856 6.41266
1744 1 24.1664 36.5891 12.5435
935 1 17.5432 5.1179 6.61149
666 1 18.2646 6.43815 4.18107
667 1 20.6599 7.6194 4.4655
665 1 20.6619 4.93947 4.25607
936 1 19.6586 6.33152 6.58341
967 1 21.9908 7.48173 6.29038
965 1 21.9954 5.02734 6.35343
696 1 22.6872 6.28823 4.28535
697 1 24.8052 7.59556 4.1082
695 1 25.0834 5.04502 4.14808
966 1 24.2584 6.10639 6.28663
640 1 13.7598 11.5528 4.50877
638 1 13.9476 8.98838 4.02974
908 1 15.3335 8.76748 6.58204
910 1 15.5299 11.6198 6.43519
641 1 16.134 12.6855 4.02057
1953 1 23.7271 35.3365 14.6626
911 1 13.3509 12.6202 6.48509
939 1 17.5152 10.0478 6.45763
670 1 18.3309 11.1918 4.19015
669 1 20.4892 10.0561 4.40974
668 1 18.4908 8.75288 4.18887
938 1 19.6398 8.7516 6.6162
940 1 19.856 11.4808 6.29767
969 1 21.8474 10.1615 6.47757
698 1 22.7033 8.87919 4.35736
700 1 22.6819 11.1596 4.0114
699 1 24.7339 9.98395 4.10574
968 1 24.0494 8.75044 6.5406
970 1 24.0509 11.3225 6.41195
1874 1 25.6602 36.7709 14.8375
644 1 13.8109 16.5318 4.21191
642 1 13.9082 14.0412 4.27039
643 1 16.1111 15.12 4.13115
912 1 15.5261 13.8187 6.50288
914 1 15.251 16.5714 6.25866
941 1 17.7208 12.6255 6.35342
673 1 20.3093 15.1155 4.0577
671 1 20.4205 12.585 4.24236
943 1 17.4832 15.2775 6.20463
674 1 18.272 16.3533 4.34197
672 1 18.252 13.7655 4.17917
942 1 19.813 13.9433 6.41355
944 1 19.5476 16.7116 6.28763
973 1 21.7686 15.0835 6.36021
971 1 22.0506 12.5977 6.31534
701 1 24.6922 12.5401 4.37296
704 1 22.6784 16.498 4.1204
702 1 22.6881 13.7081 4.13946
703 1 24.7259 15.2138 4.27051
972 1 24.1889 13.959 6.41766
974 1 23.9937 16.4745 6.42943
1692 1 24.3241 33.9527 12.5243
1003 1 26.323 15.0755 6.4241
647 1 16.2103 20.5856 4.21461
645 1 15.8824 17.9078 4.12436
646 1 14.0518 19.1683 4.19562
916 1 15.2183 19.1674 6.52897
1901 1 25.7313 34.2912 14.9494
945 1 17.3503 17.8775 6.43944
947 1 17.3605 20.3119 6.3943
675 1 20.5145 17.8011 4.20965
676 1 18.368 19.0521 4.35567
677 1 20.5515 20.3124 4.32013
946 1 19.4628 19.0434 6.59108
977 1 22.0341 20.2502 6.43126
705 1 25.0341 17.6693 4.3761
975 1 21.7832 17.7353 6.23386
707 1 24.6709 20.1736 4.26331
976 1 23.9233 19.0137 6.45465
648 1 14.0445 21.7403 4.24226
649 1 15.9006 22.9487 4.34356
650 1 13.6971 24.2286 4.10945
918 1 15.0898 21.5848 6.50948
920 1 15.3656 24.0319 6.50929
919 1 13.1031 22.9406 6.09129
651 1 16.0632 25.492 4.20737
678 1 18.313 21.6431 4.37739
949 1 17.4894 22.7687 6.30113
680 1 18.2585 24.0918 4.13592
679 1 20.509 22.9458 4.2611
948 1 19.6304 21.561 6.59277
950 1 19.566 24.0872 6.47116
951 1 17.5396 25.3756 6.34349
979 1 21.8045 22.8042 6.50746
710 1 22.6786 24.1596 4.23745
709 1 24.7931 22.7563 4.38924
708 1 22.6711 21.5524 4.42101
978 1 24.0427 21.5641 6.37928
980 1 24.0849 24.2078 6.45824
1766 1 22.1142 35.3624 12.8378
652 1 13.8389 26.6693 4.23178
654 1 13.9502 29.3046 4.23956
922 1 15.3218 26.6107 6.55649
924 1 15.347 29.206 6.75854
953 1 17.4573 27.9844 6.22778
1939 1 18.9766 35.2314 14.7066
1718 1 19.9991 34.1227 12.6721
683 1 20.5359 27.96 4.26856
681 1 20.5511 25.3727 4.35193
684 1 18.3018 29.1397 4.17893
682 1 18.5191 26.5855 4.24638
952 1 19.6705 26.5995 6.3503
954 1 19.8879 29.4496 6.39678
983 1 22.0606 27.8722 6.37771
711 1 25.0537 25.2957 4.3168
981 1 21.8782 25.3606 6.32201
713 1 24.9561 28.0114 4.33717
714 1 22.9146 29.1051 4.18414
712 1 22.7714 26.7094 4.09602
982 1 24.2774 26.6577 6.2899
984 1 24.2119 29.0805 6.53379
1896 1 21.2772 36.7593 15.1126
655 1 16.0259 30.5659 4.41922
656 1 13.7855 31.8982 4.17784
657 1 16.0449 33.0613 4.19683
926 1 15.3359 31.8301 6.41735
957 1 17.6755 33.0393 6.12062
955 1 17.3191 30.6512 6.45515
685 1 20.6712 30.3861 4.17516
687 1 20.6433 32.9779 4.21335
686 1 18.2374 31.7695 4.16572
956 1 19.7019 31.7696 6.24707
987 1 21.983 32.9849 6.51561
985 1 21.9596 30.4434 6.29789
717 1 24.9797 33.0725 4.14487
716 1 22.9202 31.7064 4.1
715 1 25.0415 30.5123 4.11396
986 1 24.192 31.7845 6.37895
1015 1 26.4091 30.2183 6.36649
659 1 16.0634 35.305 4.50633
631 1 16.0623 38.243 4.18193
658 1 13.8823 34.2662 4.3965
660 1 14.0228 36.7455 4.16175
928 1 15.2882 34.1661 6.56679
930 1 15.4363 36.9508 6.18689
1778 1 19.6387 36.5893 12.8599
959 1 17.6686 35.4246 6.40992
689 1 20.4727 35.3931 4.23457
688 1 18.503 34.254 4.20904
690 1 18.1906 36.8403 4.35854
958 1 19.8627 34.0475 6.57633
960 1 19.6843 36.6984 6.36378
720 1 22.6465 36.6206 4.19812
691 1 24.8013 37.794 4.47431
989 1 21.9977 35.5134 6.52707
718 1 22.6187 34.2776 4.14453
719 1 24.9933 35.4477 4.21094
988 1 24.1528 34.2529 6.37046
990 1 23.9013 36.5585 6.86302
1019 1 26.2149 35.5108 6.32291
1173 1 14.7343 2.36453 8.68315
1174 1 17.0127 3.66141 8.71129
1172 1 16.8308 1.14765 8.52555
1442 1 13.8658 1.40955 10.7399
1443 1 16.0622 2.54819 11.0201
1444 1 13.9488 3.69567 11.0854
1171 1 14.7197 37.974 8.602
1203 1 19.0972 2.44519 8.54623
1202 1 21.314 1.58237 8.76285
1472 1 18.2847 1.37778 11.0568
1473 1 20.5266 2.76257 10.9334
1204 1 21.1844 3.9443 8.6709
1474 1 18.2702 3.8075 11.0084
1471 1 20.2923 38.1478 10.7988
1201 1 19.2182 38.1405 8.39635
1233 1 23.3978 2.57911 8.61329
1232 1 25.6233 1.00432 8.60827
1723 1 24.9689 2.64598 10.8481
1793 1 22.6005 1.27538 10.8017
1504 1 22.7328 3.81955 10.8264
1234 1 25.889 3.81944 8.71196
1501 1 25.0415 -0.0973336 10.6354
1231 1 22.9814 -0.123937 8.59505
1176 1 16.8149 6.30018 8.62111
1177 1 14.662 7.50901 8.59521
1446 1 14.1085 6.39385 10.8662
1175 1 14.5963 5.01372 8.84475
1476 1 16.2181 5.13387 10.942
1417 1 16.2412 7.58744 11.0509
1207 1 18.7772 7.68872 8.47823
1205 1 19.0632 5.08726 8.62512
1206 1 21.2799 6.51204 8.79409
1477 1 20.3688 7.62664 10.8393
1826 1 20.5248 5.0844 10.5957
1475 1 18.3351 6.38015 10.8583
1235 1 23.6085 4.92071 8.50918
1237 1 23.4612 7.45147 8.54829
1236 1 25.7037 6.36283 8.53519
1505 1 25.0894 5.11152 10.9942
1506 1 22.5879 6.20283 11.0313
1507 1 24.7667 7.61176 10.6292
1448 1 13.848 8.80497 10.991
1178 1 16.9153 8.76356 8.83216
1180 1 16.8083 11.3838 8.61313
1179 1 14.5971 10.1268 8.69973
1450 1 13.8846 11.2775 10.6825
1449 1 16.0994 9.87506 10.6998
1478 1 18.3614 8.77637 10.7706
1210 1 21.1155 11.4553 8.43037
1208 1 21.1043 8.83141 8.76607
1209 1 18.9785 10.2023 8.72347
1479 1 20.649 10.1873 10.7008
1480 1 18.2726 11.3893 10.7719
1756 1 22.6231 8.7798 10.8112
1238 1 25.676 8.81225 8.64902
1240 1 25.8096 11.3241 8.58127
1239 1 23.4595 10.2176 8.54911
1509 1 24.7947 10.092 10.814
1510 1 22.8534 11.4351 10.6045
1451 1 15.797 12.5247 10.9865
1181 1 14.5561 12.5346 8.62576
1182 1 16.7928 13.8454 8.74106
1183 1 14.7346 15.2569 8.6492
1452 1 13.8751 13.9804 10.7757
1453 1 16.0291 15.1792 10.9307
1454 1 13.6293 16.4357 10.7228
1184 1 17.0153 16.4173 8.40057
1211 1 19.1984 12.5271 8.72467
1481 1 20.4726 12.672 10.7634
1214 1 21.3007 16.3673 8.34613
1212 1 21.2175 14.0461 8.66482
1213 1 18.953 14.9581 8.33325
1482 1 18.3648 14.0351 10.7997
1483 1 20.7045 15.1642 10.966
1484 1 18.3352 16.5868 10.624
1511 1 25.0505 12.6245 10.5679
1241 1 23.365 12.6757 8.4525
1242 1 25.5886 13.7623 8.38854
1244 1 25.6559 16.1534 8.76109
1243 1 23.4131 15.3338 8.60445
1512 1 22.9413 13.8975 10.5105
1514 1 22.79 16.3908 10.8705
1513 1 25.0159 15.1747 11.0339
1187 1 14.7219 20.1676 8.84296
1185 1 14.747 17.5837 8.59746
1186 1 16.8969 18.9152 8.58434
1455 1 16.0613 17.6968 10.617
1457 1 16.2679 20.1421 10.7721
1700 1 13.826 18.9972 10.9145
1217 1 19.2758 20.2405 8.75427
1216 1 21.2531 18.9747 8.35965
1215 1 19.2168 17.6577 8.43158
1485 1 20.5391 17.628 10.5641
1486 1 18.2666 18.8799 10.8492
1487 1 20.5669 20.3589 10.8646
1247 1 23.401 20.1852 8.61275
1246 1 25.6459 18.8412 8.66369
1245 1 23.3837 17.82 8.53361
1515 1 24.7757 17.6239 10.7125
1516 1 22.5011 18.9096 10.8149
1517 1 24.7711 20.1896 10.604
1190 1 17.0138 24.013 8.48652
1458 1 13.7693 21.5168 10.5618
1188 1 16.8521 21.3124 8.66642
1189 1 14.8361 22.7413 8.89662
1459 1 16.0232 22.8097 10.9142
1460 1 13.9473 24.1285 10.8878
1191 1 14.5676 25.3156 8.65286
1488 1 18.2273 21.4129 10.8447
1218 1 21.2514 21.6288 8.59124
1219 1 19.0163 22.6968 8.6225
1220 1 21.335 24.1361 8.55534
1489 1 20.4145 22.6479 10.6394
1490 1 18.0696 23.9364 10.8211
1491 1 20.5478 25.2434 10.7227
1249 1 23.4661 22.8556 8.30685
1518 1 22.6659 21.3933 10.732
1248 1 25.5286 21.4643 8.56481
1250 1 25.6349 24.1369 8.52155
1519 1 24.839 22.8359 10.6973
1520 1 22.685 24.0119 10.7655
1461 1 16.0498 25.3823 10.7094
1193 1 14.57 27.7378 8.72766
1194 1 16.9282 28.9781 8.55648
1192 1 16.753 26.5581 8.29697
1462 1 13.6704 26.6966 11.3967
1463 1 15.797 27.9475 10.8143
1464 1 13.7759 29.293 11.4767
1221 1 18.8565 25.2578 8.80079
1222 1 21.2587 26.6896 8.64464
1223 1 18.9603 27.6259 8.5403
1224 1 20.8996 29.1968 8.67531
1492 1 18.0559 26.6725 10.8488
1493 1 20.3222 27.8063 10.7467
1494 1 18.1479 29.267 10.6108
1251 1 23.2716 25.377 8.51986
1521 1 24.7865 25.3115 10.8845
1254 1 25.5438 29.2337 8.65402
1252 1 25.5203 26.5157 8.72116
1253 1 23.4431 27.897 8.53472
1522 1 22.5841 26.4875 10.8406
1523 1 24.6919 27.8293 10.7318
1524 1 22.6248 29.0358 10.5678
1465 1 15.7201 30.3237 10.835
1195 1 14.4172 30.5361 9.12894
1196 1 16.6041 31.2224 8.68629
1197 1 14.5954 32.9235 8.6837
1466 1 13.5529 31.8683 11.2544
1467 1 15.8921 32.8474 10.6053
1225 1 18.8315 30.3789 8.58979
1497 1 20.582 32.7549 10.3676
1226 1 21.1588 31.5645 8.31706
1227 1 18.8269 32.7326 8.37079
1495 1 20.44 30.4189 10.6004
1496 1 18.0555 31.6376 10.8679
1255 1 23.4974 30.4801 8.49249
1256 1 25.8218 31.7451 8.42188
1257 1 23.5037 32.9935 8.43479
1526 1 22.5703 31.5738 10.5761
1527 1 24.9045 32.9355 10.4783
1525 1 24.8572 30.4401 10.5421
1441 1 16.1276 38.2159 10.5991
1199 1 14.4634 35.5276 8.65632
1468 1 13.9132 34.1948 10.7747
1470 1 13.7806 36.9737 10.6801
1198 1 16.8301 33.8933 8.34097
1200 1 16.7837 36.8444 8.45669
1469 1 15.9802 35.5365 10.7536
1228 1 21.3849 34.1216 8.59445
1230 1 21.084 36.6013 8.58675
1498 1 18.4145 34.0173 10.7115
1499 1 20.3755 35.5859 10.5882
1229 1 18.8223 35.4166 8.66164
1500 1 17.9703 36.9106 10.6197
1528 1 22.6495 34.1531 10.4881
1259 1 23.364 35.445 8.76776
1258 1 25.6205 34.3443 8.44681
1260 1 25.6668 36.656 8.34104
1529 1 24.9665 35.6258 10.5847
1530 1 22.528 36.713 10.9175
2042 1 17.2674 0.743943 15.2628
1755 1 15.2214 1.24164 12.8646
2086 1 15.1005 1.86906 15.4111
1445 1 15.2862 3.55491 13.3552
2034 1 16.9558 3.70755 15.4891
1903 1 21.1238 34.281 14.729
1817 1 21.871 -0.14165 12.9757
1899 1 17.4419 2.15338 13.428
1952 1 19.0994 2.52115 15.2691
2002 1 21.1755 1.11212 15.3556
1868 1 19.6749 1.06225 13.1702
1847 1 19.6594 3.70098 13.0638
1882 1 21.1994 3.69834 15.4333
2005 1 19.0859 -0.554998 15.3255
1502 1 21.8687 2.49735 13.1506
1822 1 24.0463 1.30478 12.7314
1933 1 23.2201 2.2843 15.1791
1912 1 25.5059 1.10047 14.8325
1917 1 25.6957 3.57655 15.1003
1769 1 24.0229 3.73704 13.0562
1970 1 23.4836 -0.180075 14.9927
1691 1 16.7056 36.5873 14.6565
1805 1 15.1865 36.8297 12.6195
2092 1 16.8341 6.19829 15.6435
1447 1 15.3607 5.846 13.1291
2080 1 14.8631 7.51067 15.2362
1987 1 14.5263 35.2248 14.8728
2047 1 17.519 7.31268 13.3018
1706 1 17.4029 4.89956 13.4376
1922 1 19.3957 7.55414 15.2007
1960 1 19.0744 5.04426 15.3417
1836 1 19.6271 6.17135 12.8841
1799 1 21.5121 6.24009 15.2848
2057 1 21.8984 4.76982 12.981
1873 1 21.894 7.40834 12.9841
2090 1 23.2733 4.83256 15.0644
2050 1 23.4741 7.45617 15.3708
1823 1 24.0464 6.26147 13.2102
2066 1 25.4639 6.07741 15.3137
2083 1 16.8571 34.1127 15.0289
1852 1 15.4371 34.3247 12.9342
2097 1 14.6192 9.96948 15.1087
2084 1 16.9248 8.67409 15.3132
1920 1 15.3328 8.8304 12.9896
1879 1 15.382 11.1045 12.9829
1974 1 16.884 11.1556 15.0217
1749 1 17.7282 9.96876 13.1797
1923 1 14.5182 -0.275388 14.8534
2085 1 21.3294 8.62799 15.1318
2060 1 19.3489 10.0372 15.0765
1856 1 19.8128 8.7754 13.1512
1698 1 19.8392 11.5143 12.9374
1742 1 21.3248 11.3856 15.0404
1883 1 21.7129 10.2023 12.857
2037 1 25.2618 8.75954 14.8341
1508 1 24.0793 9.01641 12.8471
2030 1 23.3128 10.0678 14.9036
1993 1 23.9123 11.3394 12.8524
2072 1 25.5133 11.3155 14.8192
1913 1 13.1834 35.5208 12.6901
2065 1 14.7155 12.3235 15.2393
2032 1 17.122 13.8046 15.2993
2004 1 14.6229 15.0746 15.4215
1702 1 15.3294 13.9141 13.2818
1693 1 15.4052 16.2896 13.0956
1995 1 16.9407 16.3791 15.4229
1834 1 17.5884 12.4913 13.0463
2001 1 18.9615 12.5165 15.3991
1788 1 21.9738 12.8276 12.7438
1703 1 17.508 14.8776 12.986
1978 1 20.9744 13.752 14.8346
1743 1 19.7378 13.8728 12.8656
1915 1 18.9223 15.138 15.1279
1686 1 19.7767 16.3603 12.9294
1925 1 21.1193 16.305 14.8628
1685 1 22.1582 15.2232 13.0118
2016 1 23.3507 12.8871 15.0525
1991 1 25.688 13.7849 15.157
1971 1 23.5498 15.2568 14.9674
1748 1 24.438 13.9975 13.1361
1690 1 24.1663 16.5935 12.9885
1959 1 25.7864 16.461 15.288
1815 1 17.528 37.9822 12.75
2010 1 14.5421 17.5951 15.0203
2007 1 16.8104 19.0278 15.0633
1811 1 15.4098 18.9899 12.9315
1895 1 14.5367 20.1912 15.2888
1661 1 17.5457 17.5683 12.8745
1638 1 17.5844 20.2666 12.913
1884 1 19.1162 17.6459 15.2691
1887 1 21.2674 19.1352 15.1284
1909 1 18.9476 19.9468 14.9969
1651 1 19.7199 18.8537 12.746
1655 1 21.9056 20.1798 13.0123
1666 1 21.802 17.7242 12.9391
1914 1 23.4592 17.7039 15.1137
1955 1 25.6678 18.8104 15.2129
1927 1 23.4805 20.2196 15.041
1902 1 24.0946 18.9422 12.8124
1984 1 16.8713 21.3542 15.085
1973 1 14.6899 22.7197 15.0087
1647 1 15.2493 23.9981 13.0958
1967 1 15.1992 21.4661 13.0315
1926 1 16.9419 23.8013 15.1151
1634 1 17.3847 22.6195 12.9919
1881 1 21.2584 21.5222 15.1928
1664 1 19.043 22.3656 15.1106
1631 1 19.8263 21.3599 13.0318
1636 1 19.4862 23.8231 12.9024
1990 1 21.2049 23.9374 14.6417
1644 1 21.9591 22.7915 12.7595
2054 1 25.797 21.4611 15.3207
2053 1 25.4622 24.0588 15.0303
2008 1 23.5049 22.5236 15.1343
1625 1 24.2789 21.3884 12.6826
1982 1 24.1744 23.9296 12.9905
1632 1 17.4517 25.1814 12.8469
2093 1 14.7853 25.4054 15.2368
1738 1 15.5127 29.0568 13.4285
1665 1 15.4383 26.6796 12.9947
2076 1 17.0484 26.4677 14.8206
1660 1 17.6322 27.8492 12.9357
1770 1 17.7423 35.2718 12.6176
1673 1 22.1957 25.1799 12.8171
1885 1 19.0765 25.0786 14.9294
2068 1 21.3321 28.8319 14.8226
1629 1 19.7213 26.4696 12.9313
1968 1 19.7437 28.9681 13.1184
2025 1 21.3783 26.3967 14.8805
1966 1 19.0857 27.8422 15.1118
1890 1 23.4584 30.3561 14.7399
1635 1 23.43 25.2843 15.0428
1663 1 22.1254 27.8171 12.788
2067 1 25.779 29.2444 15.2882
1654 1 23.5666 27.9657 14.8271
1767 1 24.3288 26.5807 12.961
2031 1 25.6339 26.7079 15.076
1784 1 24.2333 29.2177 12.7102
2020 1 25.6548 31.7148 15.2629
1994 1 14.7691 32.7019 14.8748
2096 1 16.82 31.5248 15.0945
1707 1 15.2032 31.69 12.9197
1785 1 17.743 32.6668 13.1648
1725 1 24.1931 31.7826 12.8195
1776 1 17.4047 30.3211 12.822
2029 1 19.0861 30.5774 15.0935
1897 1 19.8027 31.5435 12.7279
1929 1 21.4597 31.5709 15.1452
1958 1 19.1921 32.832 15.2215
1763 1 21.9363 30.1746 12.763
1714 1 21.8177 32.7624 12.7083
1877 1 23.5691 32.8097 14.7923
1017 1 26.2337 32.9087 6.27703
1503 1 26.1863 2.53967 12.8616
1781 1 26.623 14.9844 12.9414
1746 1 26.3639 35.4355 12.678
907 1 13.1658 7.70339 6.33901
915 1 13.2568 17.8651 6.30108
1456 1 12.988 17.6614 12.87
1916 1 13.1372 20.202 12.9174
1730 1 13.2829 25.4248 13.308
182 1 28.5794 1.26926 0
184 1 28.5794 3.80777 0
451 1 27.8466 2.31199e-16 2.07269
452 1 30.045 1.26926 2.07269
453 1 27.8466 2.53851 2.07269
454 1 30.045 3.80777 2.07269
211 1 30.7778 0 0
213 1 30.7778 2.53851 0
212 1 32.9763 1.26926 0
214 1 32.9763 3.80777 0
481 1 32.2434 2.31199e-16 2.07269
482 1 34.4419 1.26926 2.07269
483 1 32.2434 2.53851 2.07269
484 1 34.4419 3.80777 2.07269
241 1 35.1747 0 0
242 1 37.3731 1.26926 0
243 1 35.1747 2.53851 0
244 1 37.3731 3.80777 0
511 1 36.6403 2.31199e-16 2.07269
512 1 38.8387 1.26926 2.07269
513 1 36.6403 2.53851 2.07269
514 1 38.8387 3.80777 2.07269
186 1 28.5794 6.34628 0
455 1 27.8466 5.07703 2.07269
456 1 30.045 6.34628 2.07269
457 1 27.8466 7.61554 2.07269
215 1 30.7778 5.07703 0
217 1 30.7778 7.61554 0
216 1 32.9763 6.34628 0
485 1 32.2434 5.07703 2.07269
486 1 34.4419 6.34628 2.07269
487 1 32.2434 7.61554 2.07269
245 1 35.1747 5.07703 0
246 1 37.3731 6.34628 0
247 1 35.1747 7.61554 0
515 1 36.6403 5.07703 2.07269
516 1 38.8387 6.34628 2.07269
517 1 36.6403 7.61554 2.07269
188 1 28.5794 8.8848 0
190 1 28.5794 11.4233 0
458 1 30.045 8.8848 2.07269
459 1 27.8466 10.1541 2.07269
460 1 30.045 11.4233 2.07269
219 1 30.7778 10.1541 0
218 1 32.9763 8.8848 0
220 1 32.9763 11.4233 0
488 1 34.4419 8.8848 2.07269
489 1 32.2434 10.1541 2.07269
490 1 34.4419 11.4233 2.07269
760 1 31.4893 11.4113 4.16033
248 1 37.3731 8.8848 0
249 1 35.1747 10.1541 0
250 1 37.3731 11.4233 0
518 1 38.8387 8.8848 2.07269
519 1 36.6403 10.1541 2.07269
520 1 38.8387 11.4233 2.07269
461 1 27.8466 12.6926 2.07269
221 1 30.7778 12.6926 0
192 1 28.5794 13.9618 0
194 1 28.5794 16.5003 0
462 1 30.045 13.9618 2.07269
463 1 27.8466 15.2311 2.07269
464 1 30.045 16.5003 2.07269
223 1 30.7778 15.2311 0
491 1 32.2434 12.6926 2.07269
222 1 32.9763 13.9618 0
224 1 32.9763 16.5003 0
492 1 34.4419 13.9618 2.07269
493 1 32.2434 15.2311 2.07269
494 1 34.4419 16.5003 2.07269
251 1 35.1747 12.6926 0
521 1 36.6403 12.6926 2.07269
252 1 37.3731 13.9618 0
253 1 35.1747 15.2311 0
254 1 37.3731 16.5003 0
522 1 38.8387 13.9618 2.07269
523 1 36.6403 15.2311 2.07269
524 1 38.8387 16.5003 2.07269
196 1 28.5794 19.0389 0
465 1 27.8466 17.7696 2.07269
466 1 30.045 19.0389 2.07269
467 1 27.8466 20.3081 2.07269
225 1 30.7778 17.7696 0
227 1 30.7778 20.3081 0
226 1 32.9763 19.0389 0
495 1 32.2434 17.7696 2.07269
496 1 34.4419 19.0389 2.07269
497 1 32.2434 20.3081 2.07269
255 1 35.1747 17.7696 0
256 1 37.3731 19.0389 0
257 1 35.1747 20.3081 0
525 1 36.6403 17.7696 2.07269
526 1 38.8387 19.0389 2.07269
527 1 36.6403 20.3081 2.07269
198 1 28.5794 21.5774 0
200 1 28.5794 24.1159 0
468 1 30.045 21.5774 2.07269
469 1 27.8466 22.8466 2.07269
470 1 30.045 24.1159 2.07269
471 1 27.8466 25.3851 2.07269
229 1 30.7778 22.8466 0
231 1 30.7778 25.3851 0
228 1 32.9763 21.5774 0
230 1 32.9763 24.1159 0
498 1 34.4419 21.5774 2.07269
499 1 32.2434 22.8466 2.07269
500 1 34.4419 24.1159 2.07269
501 1 32.2434 25.3851 2.07269
258 1 37.3731 21.5774 0
259 1 35.1747 22.8466 0
260 1 37.3731 24.1159 0
261 1 35.1747 25.3851 0
528 1 38.8387 21.5774 2.07269
529 1 36.6403 22.8466 2.07269
530 1 38.8387 24.1159 2.07269
531 1 36.6403 25.3851 2.07269
202 1 28.5794 26.6544 0
204 1 28.5794 29.1929 0
472 1 30.045 26.6544 2.07269
473 1 27.8466 27.9236 2.07269
474 1 30.045 29.1929 2.07269
233 1 30.7778 27.9236 0
232 1 32.9763 26.6544 0
234 1 32.9763 29.1929 0
502 1 34.4419 26.6544 2.07269
503 1 32.2434 27.9236 2.07269
504 1 34.4419 29.1929 2.07269
262 1 37.3731 26.6544 0
263 1 35.1747 27.9236 0
264 1 37.3731 29.1929 0
532 1 38.8387 26.6544 2.07269
533 1 36.6403 27.9236 2.07269
534 1 38.8387 29.1929 2.07269
206 1 28.5794 31.7314 0
475 1 27.8466 30.4622 2.07269
476 1 30.045 31.7314 2.07269
477 1 27.8466 33.0007 2.07269
235 1 30.7778 30.4622 0
237 1 30.7778 33.0007 0
236 1 32.9763 31.7314 0
505 1 32.2434 30.4622 2.07269
506 1 34.4419 31.7314 2.07269
507 1 32.2434 33.0007 2.07269
265 1 35.1747 30.4622 0
266 1 37.3731 31.7314 0
267 1 35.1747 33.0007 0
535 1 36.6403 30.4622 2.07269
536 1 38.8387 31.7314 2.07269
537 1 36.6403 33.0007 2.07269
208 1 28.5794 34.2699 0
210 1 28.5794 36.8084 0
478 1 30.045 34.2699 2.07269
479 1 27.8466 35.5392 2.07269
480 1 30.045 36.8084 2.07269
239 1 30.7778 35.5392 0
238 1 32.9763 34.2699 0
240 1 32.9763 36.8084 0
508 1 34.4419 34.2699 2.07269
509 1 32.2434 35.5392 2.07269
510 1 34.4419 36.8084 2.07269
268 1 37.3731 34.2699 0
269 1 35.1747 35.5392 0
270 1 37.3731 36.8084 0
538 1 38.8387 34.2699 2.07269
539 1 36.6403 35.5392 2.07269
540 1 38.8387 36.8084 2.07269
724 1 27.1412 3.61073 4.25556
722 1 27.0289 1.15702 4.1365
723 1 29.3886 2.63 4.20452
992 1 28.5063 1.38561 6.25584
994 1 28.5248 3.78848 6.43122
993 1 26.3803 2.39021 6.45666
991 1 26.326 38.056 6.33622
1023 1 30.8172 2.52833 6.49975
751 1 33.9244 38.243 4.30842
753 1 33.6755 2.57087 4.16429
754 1 31.6357 3.8697 4.3499
752 1 31.5531 1.34119 4.20276
1022 1 33.0688 1.33111 6.39657
1024 1 33.1025 3.79488 6.40105
1053 1 35.1606 2.51265 6.36714
784 1 36.1305 3.93287 4.25994
782 1 35.9867 1.25248 4.33199
783 1 38.0326 2.486 4.28225
1052 1 37.4828 1.14382 6.41111
1054 1 37.2662 3.83259 6.48007
1051 1 35.1918 38.2812 6.41397
813 1 39.6877 2.57721 6.65149
725 1 29.3616 5.15725 4.21578
727 1 29.3854 7.57141 4.11124
726 1 27.0305 6.25108 4.39416
996 1 28.5691 6.43325 6.29901
995 1 26.4243 4.7522 6.49876
997 1 26.1866 7.47013 6.37079
1027 1 30.736 7.51428 6.32829
1025 1 30.9189 5.27716 6.35952
756 1 31.5755 6.34938 4.29427
755 1 33.8436 4.99957 4.49831
757 1 33.857 7.30449 4.30244
1026 1 33.0104 6.41996 6.43827
1057 1 35.2716 7.64681 6.60278
787 1 38.0373 7.66991 4.46016
1055 1 35.1601 5.07112 6.57151
786 1 36.0753 6.28161 4.3215
785 1 38.191 5.18478 4.12341
1056 1 37.537 6.384 6.3941
817 1 39.7111 7.5818 6.35994
815 1 39.6283 5.167 6.35411
728 1 26.8287 8.66383 4.32204
729 1 29.1458 10.1026 4.07155
730 1 26.8235 11.0646 4.46128
998 1 28.5495 8.77855 6.08982
1000 1 28.5633 11.1401 6.32141
1029 1 30.4925 9.94429 6.20237
758 1 31.4073 8.81276 4.1092
759 1 33.7196 10.1003 4.24006
1028 1 32.971 8.81365 6.28345
1030 1 33.0239 11.3354 6.50552
1059 1 35.155 10.1103 6.31395
788 1 35.9403 8.77343 4.21853
789 1 38.1118 10.1502 4.26104
790 1 35.8167 11.3491 4.1716
1058 1 37.3838 8.9239 6.77328
1060 1 37.2474 11.3526 6.35556
791 1 37.8225 12.5594 4.2198
1061 1 35.1802 12.4357 6.31824
1710 1 39.4211 35.6171 13.0708
819 1 39.6554 10.0476 6.48709
731 1 29.2874 12.6667 4.21682
733 1 29.3195 15.046 4.27839
732 1 26.9968 13.5235 4.18434
734 1 26.964 16.4156 4.24039
1002 1 28.5477 13.678 6.30832
1004 1 28.6753 16.3657 6.59889
1031 1 30.8058 12.5762 6.28602
761 1 33.5327 12.7032 4.22855
1033 1 30.7605 15.1407 6.3842
763 1 33.7242 15.2361 4.26444
762 1 31.449 14.0045 4.12558
764 1 31.5181 16.5719 4.139
1032 1 32.8948 13.8453 6.24395
1034 1 33.1368 16.4339 6.32519
1063 1 35.1784 15.1042 6.43093
794 1 35.9675 16.7536 4.2455
793 1 38.1815 15.2808 4.16434
792 1 35.8117 13.9063 4.25511
1062 1 37.4202 13.9094 6.58329
1064 1 37.3803 16.3574 6.61609
736 1 27.165 19.0634 4.24411
737 1 29.2309 20.2488 4.18009
735 1 29.17 17.6505 4.26992
1006 1 28.5928 18.8037 6.73758
1007 1 26.4475 20.0714 6.4119
1037 1 30.6893 20.1495 6.48267
1035 1 30.8403 17.5961 6.48253
1005 1 26.2813 17.4114 6.63153
767 1 33.7446 20.458 4.40852
766 1 31.3466 19.0168 4.2482
765 1 33.834 17.825 4.20104
1036 1 32.9466 18.9268 6.42913
1065 1 35.1604 17.8497 6.34901
1067 1 35.1935 20.3242 6.25691
797 1 38.1351 20.265 4.45041
796 1 35.9726 19.2135 4.12437
795 1 38.1612 17.7872 4.22099
1066 1 37.3357 18.8636 6.41536
739 1 29.4431 22.7471 4.23728
740 1 27.1882 24.0195 4.32065
738 1 26.9006 21.4626 4.10341
1008 1 28.4793 21.4907 6.35842
1010 1 28.5004 23.9926 6.29377
769 1 33.5596 22.8581 4.43885
1039 1 30.6647 22.6956 6.37702
770 1 31.5618 24.106 4.26042
768 1 31.4824 21.67 4.19225
1038 1 32.8927 21.4882 6.38264
1040 1 32.9189 24.1576 6.68366
771 1 33.8772 25.3324 4.28204
1069 1 35.478 22.8203 6.40549
798 1 35.9289 21.6361 4.34308
799 1 38.0964 22.8947 4.1135
800 1 35.8311 24.1063 4.13879
1068 1 37.4869 21.3906 6.43618
1070 1 37.4996 24.15 6.20697
829 1 39.6214 22.5436 6.45706
1071 1 35.3792 25.3033 6.38674
744 1 27.1994 29.1781 4.18776
741 1 29.2195 25.3056 4.24433
743 1 29.5279 27.8941 4.08571
742 1 27.1377 26.5727 4.23496
1012 1 28.7569 26.5866 6.32408
1014 1 28.6012 28.9114 6.31685
1013 1 26.5893 27.7962 6.54408
1041 1 30.8149 25.2698 6.3523
1043 1 30.9231 27.6542 6.51314
773 1 33.6752 27.7556 4.2659
774 1 31.4454 28.9954 4.24743
772 1 31.6941 26.53 4.27819
1042 1 33.0013 26.4998 6.34823
1044 1 33.2153 28.9706 6.56102
1073 1 35.2226 27.7988 6.39459
801 1 38.0629 25.393 4.09627
802 1 35.9731 26.4648 4.06242
804 1 35.931 29.2647 4.33178
803 1 37.9068 27.9654 4.28375
1072 1 37.5721 26.6417 6.26534
1074 1 37.5179 29.1164 6.51851
746 1 27.1605 31.7628 4.38462
747 1 29.4006 32.9215 4.06887
745 1 29.294 30.4421 4.23921
1016 1 28.4336 31.5251 6.38154
1047 1 30.7295 32.9728 6.44732
2014 1 36.3581 38.327 15.3469
1045 1 30.8001 30.3025 6.4709
776 1 31.6468 31.9037 4.22681
775 1 33.628 30.3983 4.16537
777 1 33.8324 33.0901 4.34336
1046 1 32.8941 31.6504 6.37478
1077 1 35.0486 33.0062 6.51763
806 1 36.1184 31.7676 4.35674
1075 1 35.1158 30.4528 6.36345
807 1 38.0431 33.0139 4.61906
805 1 38.4006 30.5495 4.2141
1076 1 37.2538 31.7872 6.57932
721 1 29.1965 38.3464 4.21395
750 1 27.0975 36.7025 4.15133
749 1 29.3922 35.5161 4.40687
748 1 27.137 34.2611 4.15342
1018 1 28.7773 34.4573 6.53506
1020 1 28.4119 36.8206 6.56185
1049 1 30.8549 35.7146 6.46676
1021 1 30.6966 38.2006 6.30595
780 1 31.3823 36.8524 4.21329
779 1 33.6965 35.4597 4.13056
778 1 31.4576 34.4014 4.40487
1048 1 33.1404 34.4777 6.5065
1050 1 32.9973 36.9525 6.31779
1079 1 35.0578 35.7557 6.14612
781 1 38.2093 38.0619 4.07024
808 1 35.85 34.2012 4.12467
810 1 36.0704 36.8735 4.17804
809 1 38.2019 35.3171 4.03
1078 1 36.9856 34.4743 6.3709
1080 1 37.2615 36.8489 6.62355
1262 1 30.107 1.0286 8.56026
1263 1 28.0226 2.45214 8.50461
1533 1 29.3332 2.368 10.6677
1532 1 26.9308 1.25712 10.765
1264 1 30.2461 3.70752 8.73553
1534 1 27.2615 3.50905 10.7979
1531 1 29.2339 38.1613 10.795
1261 1 27.9289 38.2482 8.6129
1294 1 34.492 3.84445 8.49448
1293 1 32.308 2.66024 8.65768
1292 1 34.2689 1.09574 8.56725
1562 1 31.5257 1.2214 10.9244
1563 1 33.7152 2.62997 10.9052
1564 1 31.6256 3.94555 10.8157
1561 1 33.8198 38.0952 10.7126
1323 1 36.695 2.51947 8.41098
1322 1 38.7144 1.27863 8.54897
1592 1 36.0261 1.27617 10.8877
1593 1 38.1202 2.50618 11.0992
1594 1 36.0271 3.793 10.7288
1324 1 38.4951 3.91062 8.67421
1591 1 38.1299 38.1727 10.9625
1266 1 30.2283 6.24893 8.5199
1267 1 28.002 7.3522 8.45589
1265 1 27.8781 4.9592 8.518
1536 1 27.4217 6.10792 10.803
1537 1 29.6023 7.47318 10.6265
1535 1 29.5593 5.03963 10.6328
1296 1 34.4484 6.3214 8.65473
1297 1 32.1759 7.65271 8.53131
1295 1 32.3983 5.07909 8.48861
1565 1 33.6014 5.15502 10.519
1566 1 31.6003 6.33149 10.6185
1567 1 33.6308 7.68942 10.7015
1325 1 36.6028 5.13413 8.71193
1327 1 36.4973 7.56108 8.85012
1326 1 38.8065 6.57479 8.57888
1595 1 38.1006 4.98103 11.0447
1596 1 36.1288 6.3005 10.8682
1597 1 38.1672 7.76178 10.7159
1269 1 28.0167 9.98624 8.53248
1538 1 27.2067 8.70496 10.399
1268 1 30.0687 8.7745 8.2648
1270 1 30.0679 11.32 8.3652
1540 1 27.1997 11.3871 10.6766
1539 1 29.322 10.1482 10.6503
1541 1 29.2259 12.6036 10.5749
1298 1 34.4282 8.8971 8.59008
1299 1 32.4627 10.1594 8.34119
1300 1 34.6029 11.4556 8.58638
1569 1 33.8081 10.351 10.7911
1570 1 31.5057 11.4968 10.6054
1719 1 31.5617 9.02336 10.5844
1329 1 36.5868 10.0251 8.82239
1328 1 38.9322 9.01853 8.79709
1330 1 38.704 11.3804 8.41846
1599 1 38.1512 10.2923 10.8827
1600 1 35.8888 11.7201 10.8702
1598 1 35.9047 8.71306 10.8639
1271 1 27.9689 12.6445 8.52739
1273 1 27.8766 14.9628 8.47496
1272 1 30.0817 14.228 8.71901
1542 1 27.0121 13.8736 10.6509
1543 1 29.4461 15.4381 10.8269
1274 1 30.057 16.7139 8.51525
1544 1 27.0067 16.3046 10.8848
1301 1 32.147 12.7734 8.46459
1571 1 33.5021 12.8494 10.3577
1304 1 34.5738 16.6353 8.64427
1303 1 32.3954 15.2971 8.45669
1302 1 34.3442 13.7614 8.29759
1572 1 31.4087 13.9807 10.8821
1576 1 33.5168 15.435 10.6916
1574 1 31.5065 16.5634 10.4739
1601 1 38.2166 12.6484 10.6422
1331 1 36.7179 12.8821 8.69121
1334 1 38.6513 16.4822 8.57249
1332 1 38.8771 13.9536 8.60378
1333 1 36.4508 15.3152 8.71176
1602 1 35.826 13.8864 11.0963
1603 1 38.0068 15.0394 10.8602
1604 1 35.8137 16.4394 10.9515
1277 1 27.7486 20.11 8.53521
1275 1 27.7898 17.6144 8.7642
1276 1 30.2171 19.1468 8.63344
1545 1 29.115 17.7463 10.8951
1546 1 26.8725 18.9703 10.6626
1547 1 29.2714 20.1611 10.5945
1306 1 34.5535 19.3326 8.52093
1305 1 32.4223 17.8114 8.58135
1307 1 32.3978 20.2549 8.62656
1578 1 33.7751 20.2999 10.6784
1606 1 33.6775 17.8954 10.6456
1724 1 31.5461 18.9818 10.6523
1335 1 36.6279 17.7012 8.56041
1337 1 36.746 20.2909 8.51012
1336 1 38.8803 19.0711 8.5018
1605 1 38.126 17.9813 10.6813
1607 1 38.0009 20.4391 10.522
1892 1 35.7537 18.9209 10.6325
1278 1 30.0519 21.5703 8.57923
1279 1 27.7794 22.9016 8.65366
1548 1 26.7991 21.4968 10.654
1280 1 30.1061 24.0558 8.5274
1550 1 26.9263 24.0223 10.9904
1951 1 29.1008 22.6224 10.5928
1579 1 31.4188 21.5436 10.6249
1310 1 34.4672 24.1638 8.66291
1308 1 34.3762 21.8192 8.30126
1309 1 32.1721 22.8333 8.57158
1580 1 31.2721 24.1493 10.6344
1858 1 33.6224 22.8367 10.6866
1340 1 38.9116 23.8088 8.68174
1338 1 38.9537 21.4176 8.56534
1608 1 35.9127 21.6046 10.47
1339 1 36.595 23.1164 8.63287
1610 1 35.9531 24.2945 10.7738
1758 1 38.2492 22.8633 10.6331
1341 1 36.7383 25.4005 8.80467
1611 1 38.15 25.4393 10.7857
1281 1 27.8004 25.3916 8.24561
1551 1 29.0071 25.0687 10.3332
1284 1 29.9162 29.0619 8.66233
1282 1 29.7843 26.5905 8.55009
1283 1 27.849 27.7675 8.65414
1552 1 27.017 26.3792 10.5405
1553 1 29.1978 27.7045 10.8447
1697 1 27.0434 28.8972 10.8876
1311 1 32.1592 25.4344 8.55463
1581 1 33.5913 25.3317 10.6666
1312 1 34.4542 26.5607 8.42962
1313 1 32.1724 27.9674 8.60633
1582 1 31.312 26.6556 10.6351
1584 1 31.5273 29.141 10.675
1583 1 33.6561 27.9486 10.681
1314 1 34.5983 29.1953 8.67328
1342 1 39.0052 26.5178 8.38108
1612 1 35.7241 26.8409 10.9284
1343 1 36.7512 27.8309 8.53816
1613 1 38.0677 27.9748 10.4511
1614 1 35.8418 29.319 10.9585
1344 1 38.9021 29.2217 8.52442
1287 1 27.8285 32.9257 8.4536
1286 1 29.9353 31.6613 8.52683
1285 1 27.8417 30.3452 8.63343
1555 1 29.1046 30.3362 10.8414
1556 1 27.0773 31.5001 10.657
1557 1 29.2048 32.989 10.6257
1315 1 32.1346 30.5771 8.52336
1316 1 34.4376 31.6259 8.57803
1317 1 32.1149 32.8892 8.32743
1585 1 33.5411 30.5383 10.7201
1586 1 31.4548 31.6478 10.6809
1587 1 33.6279 33.014 10.8769
1346 1 38.7369 31.6967 8.68501
1347 1 36.4564 32.9765 8.77897
1345 1 36.7121 30.3164 8.63012
1615 1 38.2105 30.5967 10.6914
1616 1 35.6853 31.6415 10.8073
1617 1 37.9955 32.876 10.8746
1288 1 30.1042 34.2598 8.71029
1558 1 27.2769 34.4177 10.6135
1290 1 29.8158 36.6639 8.53593
1289 1 27.7498 35.3991 8.42035
1559 1 29.295 35.4913 10.8689
1677 1 27.1324 36.8971 10.6832
1291 1 31.9181 37.7913 8.36367
1319 1 32.0983 35.5263 8.7702
1588 1 31.4374 34.2492 10.7375
1318 1 34.3433 34.4266 8.76155
1590 1 31.513 36.7541 10.8566
1589 1 33.5461 35.4653 10.8103
1320 1 34.3453 36.8001 8.68579
1321 1 36.5672 -0.0843824 8.82527
1348 1 38.5963 34.1816 8.81361
1618 1 35.7051 34.1509 10.8152
1620 1 36.0735 36.717 10.8083
1349 1 36.5227 35.379 8.57649
1619 1 38.0305 35.33 10.9369
1350 1 38.7766 36.7537 8.95721
2039 1 27.8961 2.49329 14.9325
2003 1 29.9661 1.36873 15.0811
1683 1 28.3137 1.4176 12.7779
1674 1 28.7275 3.9468 12.7637
2077 1 30.0732 3.78728 14.8957
2033 1 27.7173 38.1509 14.9193
1750 1 35.1919 35.8373 12.9663
1623 1 30.9753 2.84279 12.8437
2095 1 34.7596 3.78355 15.3071
1671 1 32.8817 1.38236 12.8738
2015 1 34.2722 1.31363 14.9827
2075 1 32.3082 2.55997 15.0841
1652 1 32.9361 4.2437 13.04
1643 1 30.744 38.3211 12.9517
1656 1 35.116 2.57077 12.9275
1680 1 35.0197 38.1661 12.7554
2091 1 36.7656 2.6776 14.9951
1641 1 37.4015 1.3737 12.9687
2058 1 38.6482 1.03682 15.1629
2049 1 38.8709 4.02478 15.3915
1633 1 37.4468 4.08029 13.0828
1645 1 39.5511 2.72332 13.323
2102 1 27.5263 7.49115 14.9609
2070 1 27.9732 4.9996 14.776
1739 1 29.9132 6.18316 15.1819
1741 1 28.6506 6.56482 12.8904
1626 1 30.7336 5.32014 12.8022
1689 1 30.924 7.73911 12.7189
2046 1 32.173 5.11494 15.2768
1624 1 33.1239 6.56907 12.7625
2073 1 31.9149 7.39334 14.8995
1628 1 34.4177 6.26617 15.3628
2078 1 35.3653 5.08166 13.1612
1621 1 35.3114 7.5545 13.1025
2088 1 36.5614 5.29401 15.3847
1701 1 37.5777 6.5145 13.0197
1765 1 27.6988 10.0608 14.9483
2081 1 29.8392 8.99954 14.6252
2089 1 28.5751 11.1923 12.9245
1737 1 28.5573 8.74942 12.6809
1568 1 30.8982 10.1233 12.8147
1869 1 33.1031 8.96298 12.7108
1809 1 33.0454 11.5057 13.0164
1814 1 35.21 10.1278 13.0044
1838 1 37.3729 11.5505 13.0814
1734 1 37.3483 8.81345 12.7587
1782 1 37.3248 34.2878 12.8954
2026 1 27.7114 12.6299 14.7982
1989 1 38.5715 34.2285 15.0847
2059 1 30.2165 13.8274 14.9774
1859 1 28.7709 13.9156 12.7809
2012 1 27.8324 15.0784 15.1
1789 1 28.4308 16.609 13.0683
2052 1 30.0749 16.2818 15.2349
1849 1 30.8106 15.2772 12.8335
1786 1 30.8262 12.6255 12.9659
1796 1 33.1306 13.7933 12.6838
1573 1 32.8282 16.4644 12.8004
1848 1 35.1853 15.2237 13.2681
1846 1 35.1446 12.6493 13.4028
1889 1 37.5269 14.0137 13.5856
1704 1 37.2396 16.3663 12.8974
2062 1 38.9281 16.4439 14.7049
1653 1 39.9321 15.1209 12.8669
1792 1 26.2857 17.7632 12.9157
1975 1 28.1083 17.679 15.1288
1977 1 27.6988 20.2299 15.1056
1947 1 28.4915 19.1486 12.838
1842 1 26.3103 20.102 12.7553
1851 1 30.6148 20.258 12.8851
1957 1 30.5917 17.8189 12.9019
1575 1 32.8471 18.9852 12.8296
1886 1 34.9285 17.6572 13.0938
1681 1 34.9954 20.1543 12.9717
2045 1 36.51 17.7909 14.7475
1945 1 36.7055 20.3947 14.724
1934 1 37.227 18.8896 12.9408
2022 1 39.0823 18.9906 15.2077
1753 1 39.2475 20.4132 12.9806
1864 1 26.3817 22.6901 12.8968
1720 1 28.5114 21.5752 12.793
1735 1 28.6065 24.062 12.8678
2044 1 27.7804 22.9641 15.0387
1998 1 30.1245 24.395 15.1525
1549 1 30.6305 22.8303 13.179
1577 1 34.3259 21.6466 14.9655
1942 1 34.4464 24.1448 14.8427
1910 1 32.6141 24.0296 12.7874
2011 1 32.8722 21.3367 12.8849
1857 1 34.9593 22.721 12.7728
1986 1 38.6983 21.5716 14.9642
1850 1 37.2076 21.5407 12.5272
2017 1 36.548 22.9386 14.8655
1840 1 38.9806 24.0874 14.7441
1875 1 37.2704 24.1234 12.8159
1684 1 37.2861 36.9726 12.9191
2069 1 27.7665 25.5441 14.96
1554 1 27.7846 27.9164 15.1681
2055 1 29.9613 26.7791 14.9182
1798 1 28.5042 29.0675 12.9947
1862 1 28.3358 26.605 12.8221
1997 1 30.076 29.3844 15.0618
1827 1 30.6089 27.9372 12.7686
2074 1 32.368 25.4913 15.0067
1713 1 30.6805 25.5227 12.722
2038 1 32.4344 28.0102 14.7184
1963 1 34.651 26.5662 15.0321
1919 1 32.6347 29.5336 12.861
1940 1 32.9466 26.5602 12.8059
1928 1 34.2538 29.5382 15.3747
1609 1 35.2135 25.6043 13.0462
1843 1 34.9855 28.1697 13.1129
1972 1 36.8832 25.5262 14.9104
1911 1 38.9382 26.915 14.8049
1870 1 38.5904 29.3175 14.9223
1888 1 36.4646 28.1138 15.3938
1374 1 37.2669 26.989 12.8338
1844 1 37.3715 29.1203 12.8198
1999 1 27.7581 33.0288 14.9155
1944 1 29.8178 31.8776 14.9548
1950 1 27.9323 30.518 14.9136
1722 1 28.5796 31.6703 12.8392
1841 1 26.2532 30.4057 13.1488
1695 1 26.438 32.9788 12.8798
1845 1 30.6748 30.544 13.0189
1833 1 30.7451 33.0698 13.0382
1921 1 34.4344 32.0225 15.3067
1810 1 32.915 31.6999 12.5887
2028 1 32.2586 30.6815 14.9975
1948 1 32.3346 33.3916 14.9581
1867 1 35.0618 30.4638 13.003
1752 1 37.4469 31.5916 12.808
1863 1 38.6868 31.8726 15.048
1754 1 39.5495 33.12 12.8227
1943 1 36.4958 33.0794 14.8841
1829 1 35.0461 32.9736 12.8085
1905 1 36.43 30.6273 14.9704
1808 1 28.5661 34.3416 12.861
1979 1 29.9251 36.7495 14.9683
1675 1 28.4101 37.0418 12.8352
1962 1 30.0374 34.3261 15.257
1907 1 28.0216 35.4322 14.8691
1980 1 38.98 36.9123 15.3531
1983 1 30.697 35.6186 12.8982
2018 1 32.1878 35.6806 15.1292
1820 1 33.0153 34.4272 12.8751
1687 1 32.8829 36.8577 13.1763
1992 1 34.5185 36.9746 15.3971
1941 1 34.5508 34.4923 15.0912
1764 1 32.1741 0.0876555 15.5748
1949 1 36.6737 35.7329 15.1015
825 1 39.5223 17.6031 6.32198
831 1 39.6043 25.3273 6.30733
837 1 39.4909 32.7828 6.57574
839 1 39.4267 35.2925 6.56648
1622 1 39.6413 5.21445 13.2721
1797 1 39.7073 12.688 12.606
1699 1 39.5447 25.5316 12.7823
999 1 26.3196 9.93536 6.63077
1001 1 26.5871 12.6382 6.40935
1009 1 26.3314 22.7977 6.55962
1011 1 26.3674 25.3475 6.23357
1560 1 26.2498 0.0945118 12.7806
1807 1 26.5019 5.0135 12.9032
1733 1 26.1245 7.56564 12.4868
2071 1 26.3621 9.95216 12.7827
1712 1 26.371 12.302 12.7678
1790 1 26.2478 25.2423 13.0217
1938 1 26.2784 27.7169 12.7369
2104 1 32.11676422796313 14.555167532263566 38
